
[
	
	{
		"class_type" : "DsRoutePathSpace",
		"description" : "Default route path.",
		"events" : 
		{
			"UserAsksForDirections" : 
			[
				
				{
					"text" : "User asks for directions",
					"triggerType" : "SpatialLocation",
					"triggerValue" : [ -47.09110, 0, -116.7150 ],
					"type" : "UserAsksForDirections"
				},
				
				{
					"text" : "User asks for directions",
					"triggerType" : "SpatialLocation",
					"triggerValue" : [ -46.26390, 0, -113.88630 ],
					"type" : "UserAsksForDirections"
				}
			],
			"UserIsFrustrated" : 
			[
				
				{
					"text" : "User seems frustrated",
					"triggerType" : "SpatialLocation",
					"triggerValue" : [ -47.22260, 0, -117.12770 ],
					"type" : "UserIsFrustrated"
				},
				
				{
					"text" : "User seems frustrated",
					"triggerType" : "SpatialLocation",
					"triggerValue" : [ -57.24850, 0, -110.73250 ],
					"type" : "UserIsFrustrated"
				}
			],
			"UserLooksAround" : 
			[
				
				{
					"text" : "User looks around",
					"triggerType" : "SpatialLocation",
					"triggerValue" : [ -57.20480000000001, 0, -110.75440 ],
					"type" : "UserLooksAround"
				},
				
				{
					"text" : "User looks around",
					"triggerType" : "SpatialLocation",
					"triggerValue" : [ -46.94580000000001, 0, -116.25920 ],
					"type" : "UserLooksAround"
				}
			],
			"UserWaits" : 
			[
				
				{
					"text" : "User waits",
					"triggerType" : "SpatialLocation",
					"triggerValue" : [ -46.98560000000001, 0, -116.3840 ],
					"type" : "UserWaits"
				},
				
				{
					"text" : "User waits",
					"triggerType" : "SpatialLocation",
					"triggerValue" : [ -46.26390, 0, -113.04960 ],
					"type" : "UserWaits"
				}
			],
			"entering_topological_product" : 
			[
				
				{
					"object" : [ "wKQfTs^^wSgfELcxc46I" ],
					"triggerType" : "SpatialLocation",
					"triggerValue" : [ -47.32390, 0, -117.44540 ],
					"type" : "EnteringTopologicalProduct"
				},
				
				{
					"object" : [ "0kK80n2ejhRjDhCyKCKHWF" ],
					"triggerType" : "SpatialLocation",
					"triggerValue" : [ -46.26390, 0, -114.120 ],
					"type" : "EnteringTopologicalProduct"
				},
				
				{
					"object" : [ "cT/iv6:m#*qEI-;TdH;J" ],
					"triggerType" : "SpatialLocation",
					"triggerValue" : [ -46.26390, 0, -112.72680 ],
					"type" : "EnteringTopologicalProduct"
				}
			],
			"isovists" : 
			[
				
				{
					"event_index" : 0,
					"isovist_geometry" : 
					{
						"contours" : 
						[
							
							[
								[ -53.7740, 0, -113.65380 ],
								[ -53.7730, 0, -113.65480 ],
								[ -53.7730, 0, -121.23610 ],
								[ -53.77350000000001, 0, -121.23640 ],
								[ -40.87170, 0, -121.23640 ],
								[ -40.87480, 0, -121.23460 ],
								[ -40.87480, 0, -113.65420 ],
								[ -40.87520, 0, -113.65440 ],
								[ -45.50360, 0, -113.65440 ],
								[ -45.50360, 0, -113.19230 ],
								[ -40.87480, 0, -102.37720 ],
								[ -40.87480, 0, -96.33590000000001 ],
								[ -40.87650, 0, -96.34150000000001 ],
								[ -41.73440, 0, -96.34150000000001 ],
								[ -45.46680, 0, -110.43370 ],
								[ -45.46680, 0, -109.97160 ],
								[ -40.87480, 0, -91.49130000000001 ],
								[ -40.87480, 0, -84.48890 ],
								[ -44.51460, 0, -103.08910 ],
								[ -46.18820, 0, -103.08910 ],
								[ -47.0240, 0, -113.65440 ],
								[ -53.7730, 0, -113.65440 ],
								[ -53.7740, 0, -113.65380 ]
							]
						],
						"holes" : null
					},
					"triggerType" : "SpatialLocation",
					"triggerValue" : [ -47.32390, 0, -117.44540 ],
					"type" : "IsovistEvent",
					"visible_products" : [ "2GFAPGjp3RJz6cltRX4UD8", "0kK80n2ejhRjDhCyKCKHWF" ]
				},
				
				{
					"event_index" : 1,
					"isovist_geometry" : 
					{
						"contours" : 
						[
							
							[
								[ -53.77370000000001, 0, -113.65410 ],
								[ -53.7730, 0, -113.65480 ],
								[ -53.7730, 0, -121.23610 ],
								[ -53.77340, 0, -121.23640 ],
								[ -40.87250, 0, -121.23640 ],
								[ -40.87480, 0, -121.23460 ],
								[ -40.87480, 0, -113.65420 ],
								[ -40.87520, 0, -113.65440 ],
								[ -45.50360, 0, -113.65440 ],
								[ -45.50360, 0, -113.19230 ],
								[ -40.87480, 0, -103.11950 ],
								[ -40.87480, 0, -103.08520 ],
								[ -40.87660, 0, -103.08910 ],
								[ -43.58380, 0, -103.08910 ],
								[ -45.46680, 0, -110.43370 ],
								[ -45.46680, 0, -109.97160 ],
								[ -40.87480, 0, -90.69490 ],
								[ -40.87480, 0, -84.48890 ],
								[ -44.44640, 0, -103.08910 ],
								[ -46.94680, 0, -103.08910 ],
								[ -46.9870, 0, -110.43370 ],
								[ -47.02720, 0, -110.43370 ],
								[ -47.0240, 0, -113.19230 ],
								[ -47.0240, 0, -113.65440 ],
								[ -53.7730, 0, -113.65440 ],
								[ -53.77370000000001, 0, -113.65410 ]
							]
						],
						"holes" : null
					},
					"triggerType" : "SpatialLocation",
					"triggerValue" : [ -47.02020, 0, -116.49260 ],
					"type" : "IsovistEvent",
					"visible_products" : [ "2GFAPGjp3RJz6cltRX4UD8", "0kK80n2ejhRjDhCyKCKHWF" ]
				},
				
				{
					"event_index" : 2,
					"isovist_geometry" : 
					{
						"contours" : 
						[
							
							[
								[ -53.77350000000001, 0, -113.65430 ],
								[ -53.7730, 0, -113.65480 ],
								[ -53.7730, 0, -121.23610 ],
								[ -53.77340, 0, -121.23640 ],
								[ -40.8730, 0, -121.23640 ],
								[ -40.87480, 0, -121.23460 ],
								[ -40.87480, 0, -113.65430 ],
								[ -40.87520, 0, -113.65440 ],
								[ -45.50360, 0, -113.65440 ],
								[ -45.50360, 0, -113.19230 ],
								[ -40.87480, 0, -104.23310 ],
								[ -40.87480, 0, -103.08530 ],
								[ -40.87660, 0, -103.08910 ],
								[ -43.66930, 0, -103.08910 ],
								[ -45.46680, 0, -110.43370 ],
								[ -45.46680, 0, -109.97160 ],
								[ -40.87480, 0, -89.51100000000001 ],
								[ -40.87480, 0, -84.48890 ],
								[ -44.37410000000001, 0, -103.08910 ],
								[ -47.32130, 0, -103.08910 ],
								[ -46.9870, 0, -109.97160 ],
								[ -46.9870, 0, -110.43370 ],
								[ -47.38530, 0, -110.43370 ],
								[ -47.0240, 0, -113.19230 ],
								[ -47.0240, 0, -113.65440 ],
								[ -53.7730, 0, -113.65440 ],
								[ -53.77350000000001, 0, -113.65430 ]
							]
						],
						"holes" : null
					},
					"triggerType" : "SpatialLocation",
					"triggerValue" : [ -46.71650, 0, -115.53990 ],
					"type" : "IsovistEvent",
					"visible_products" : [ "2GFAPGjp3RJz6cltRX4UD8", "0kK80n2ejhRjDhCyKCKHWF" ]
				},
				
				{
					"event_index" : 3,
					"isovist_geometry" : 
					{
						"contours" : 
						[
							
							[
								[ -53.77350000000001, 0, -113.65430 ],
								[ -53.7730, 0, -113.65480 ],
								[ -53.7730, 0, -121.23610 ],
								[ -53.77330000000001, 0, -121.23640 ],
								[ -40.87330, 0, -121.23640 ],
								[ -40.87480, 0, -121.23460 ],
								[ -40.87480, 0, -113.65430 ],
								[ -40.87520, 0, -113.65440 ],
								[ -45.50360, 0, -113.65440 ],
								[ -45.50360, 0, -113.19230 ],
								[ -40.87480, 0, -106.09130 ],
								[ -40.87480, 0, -103.08540 ],
								[ -40.87660, 0, -103.08910 ],
								[ -43.7940, 0, -103.08910 ],
								[ -45.46680, 0, -110.43370 ],
								[ -45.46680, 0, -109.97160 ],
								[ -40.87480, 0, -87.56740000000001 ],
								[ -40.87480, 0, -84.48890 ],
								[ -44.29720, 0, -103.08910 ],
								[ -47.84320, 0, -103.08910 ],
								[ -46.9870, 0, -109.97160 ],
								[ -46.9870, 0, -110.43370 ],
								[ -48.23280, 0, -110.43370 ],
								[ -47.0240, 0, -113.19230 ],
								[ -47.0240, 0, -113.65440 ],
								[ -53.7730, 0, -113.65440 ],
								[ -53.77350000000001, 0, -113.65430 ]
							]
						],
						"holes" : null
					},
					"triggerType" : "SpatialLocation",
					"triggerValue" : [ -46.41280, 0, -114.58710 ],
					"type" : "IsovistEvent",
					"visible_products" : [ "2GFAPGjp3RJz6cltRX4UD8", "0kK80n2ejhRjDhCyKCKHWF" ]
				},
				
				{
					"event_index" : 4,
					"isovist_geometry" : 
					{
						"contours" : 
						[
							
							[
								[ -53.77340, 0, -113.65440 ],
								[ -53.7730, 0, -113.65480 ],
								[ -53.7730, 0, -121.23610 ],
								[ -53.77330000000001, 0, -121.23640 ],
								[ -40.87340, 0, -121.23640 ],
								[ -40.87480, 0, -121.23460 ],
								[ -40.87480, 0, -113.65440 ],
								[ -40.87520, 0, -113.65440 ],
								[ -45.50360, 0, -113.65440 ],
								[ -45.50360, 0, -113.19230 ],
								[ -40.87480, 0, -107.54430 ],
								[ -40.87480, 0, -106.87060 ],
								[ -43.17980, 0, -109.97130 ],
								[ -43.17980, 0, -103.08940 ],
								[ -40.87480, 0, -94.84530000000001 ],
								[ -40.87480, 0, -89.19740 ],
								[ -45.46680, 0, -110.43370 ],
								[ -45.46680, 0, -109.97160 ],
								[ -40.87480, 0, -86.07320 ],
								[ -40.87480, 0, -84.48890 ],
								[ -44.25770, 0, -103.08910 ],
								[ -48.18670, 0, -103.08910 ],
								[ -46.9870, 0, -109.97160 ],
								[ -46.9870, 0, -110.43370 ],
								[ -49.28420000000001, 0, -110.43370 ],
								[ -47.0240, 0, -113.19230 ],
								[ -47.0240, 0, -113.65440 ],
								[ -53.7730, 0, -113.65440 ],
								[ -53.77340, 0, -113.65440 ]
							]
						],
						"holes" : null
					},
					"triggerType" : "SpatialLocation",
					"triggerValue" : [ -46.26390, 0, -114.120 ],
					"type" : "IsovistEvent",
					"visible_products" : 
					[
						"3XmS1mRT6z_Oj8qsuF_8Jz",
						"2GFAPGjp3RJz6cltRX4UD8",
						"0kK80n2ejhRjDhCyKCKHWF"
					]
				},
				
				{
					"event_index" : 5,
					"isovist_geometry" : 
					{
						"contours" : 
						[
							
							[
								[ -71.99350, 0, -112.280 ],
								[ -71.99230, 0, -112.280 ],
								[ -71.080, 0, -113.19230 ],
								[ -71.080, 0, -113.19230 ],
								[ -71.07990000000001, 0, -113.19230 ],
								[ -66.11490000000001, 0, -113.19230 ],
								[ -66.11530, 0, -113.19270 ],
								[ -66.11460000000001, 0, -113.19270 ],
								[ -66.11460000000001, 0, -113.30 ],
								[ -54.23510, 0, -113.19230 ],
								[ -47.0240, 0, -113.19230 ],
								[ -47.0240, 0, -113.65440 ],
								[ -53.7730, 0, -118.39940 ],
								[ -53.7730, 0, -121.23610 ],
								[ -53.77330000000001, 0, -121.23640 ],
								[ -40.87360, 0, -121.23640 ],
								[ -40.87480, 0, -121.23460 ],
								[ -40.87480, 0, -116.90790 ],
								[ -45.50360, 0, -113.65440 ],
								[ -45.50360, 0, -113.19230 ],
								[ -40.8750, 0, -113.19230 ],
								[ -40.87480, 0, -113.19230 ],
								[ -40.87480, 0, -110.43370 ],
								[ -40.92860, 0, -110.43370 ],
								[ -40.92860, 0, -109.97160 ],
								[ -40.87480, 0, -109.93990 ],
								[ -40.87480, 0, -109.32540 ],
								[ -42.44880, 0, -110.43370 ],
								[ -45.46680, 0, -110.43370 ],
								[ -45.46680, 0, -109.97160 ],
								[ -40.87480, 0, -91.8340 ],
								[ -40.87480, 0, -84.48890 ],
								[ -44.37580000000001, 0, -103.08910 ],
								[ -48.56770, 0, -103.08910 ],
								[ -46.9870, 0, -109.97160 ],
								[ -46.9870, 0, -110.43370 ],
								[ -56.91860, 0, -110.43370 ],
								[ -71.99240, 0, -106.63320 ],
								[ -71.99240, 0, -112.27950 ],
								[ -71.99350, 0, -112.280 ]
							]
						],
						"holes" : null
					},
					"triggerType" : "SpatialLocation",
					"triggerValue" : [ -46.26390, 0, -113.120 ],
					"type" : "IsovistEvent",
					"visible_products" : 
					[
						"3XmS1mRT6z_Oj8qsuF_8Jz",
						"2GFAPGjp3RJz6cltRX4UD8",
						"0kK80n2ejhRjDhCyKCKHWF"
					]
				},
				
				{
					"event_index" : 6,
					"isovist_geometry" : 
					{
						"contours" : 
						[
							
							[
								[ -71.99360, 0, -112.280 ],
								[ -71.99230, 0, -112.280 ],
								[ -71.080, 0, -113.19230 ],
								[ -71.080, 0, -113.19230 ],
								[ -71.07990000000001, 0, -113.19230 ],
								[ -66.11490000000001, 0, -113.19230 ],
								[ -66.11530, 0, -113.19270 ],
								[ -66.11460000000001, 0, -113.19270 ],
								[ -66.11460000000001, 0, -113.8860 ],
								[ -54.23510, 0, -113.19230 ],
								[ -47.0240, 0, -113.19230 ],
								[ -47.0240, 0, -113.65440 ],
								[ -53.23690000000001, 0, -121.23640 ],
								[ -40.87370, 0, -121.23640 ],
								[ -40.87480, 0, -121.23460 ],
								[ -40.87480, 0, -119.30170 ],
								[ -45.50360, 0, -113.65440 ],
								[ -45.50360, 0, -113.19230 ],
								[ -40.8750, 0, -113.19230 ],
								[ -40.87480, 0, -113.19230 ],
								[ -40.87480, 0, -110.43370 ],
								[ -40.92860, 0, -110.43370 ],
								[ -40.92860, 0, -109.97160 ],
								[ -40.87480, 0, -109.94380 ],
								[ -40.87480, 0, -109.48760 ],
								[ -42.44880, 0, -110.43370 ],
								[ -45.46680, 0, -110.43370 ],
								[ -45.46680, 0, -109.97160 ],
								[ -40.87480, 0, -94.09920000000001 ],
								[ -40.87480, 0, -84.48890 ],
								[ -44.42460000000001, 0, -103.08910 ],
								[ -48.79330, 0, -103.08910 ],
								[ -46.9870, 0, -109.97160 ],
								[ -46.9870, 0, -110.43370 ],
								[ -56.91860, 0, -110.43370 ],
								[ -71.99240, 0, -107.18950 ],
								[ -71.99240, 0, -112.27950 ],
								[ -71.99360, 0, -112.280 ]
							]
						],
						"holes" : null
					},
					"triggerType" : "SpatialLocation",
					"triggerValue" : [ -46.26390, 0, -112.72680 ],
					"type" : "IsovistEvent",
					"visible_products" : 
					[
						"3XmS1mRT6z_Oj8qsuF_8Jz",
						"2GFAPGjp3RJz6cltRX4UD8",
						"0kK80n2ejhRjDhCyKCKHWF"
					]
				},
				
				{
					"event_index" : 7,
					"isovist_geometry" : 
					{
						"contours" : 
						[
							
							[
								[ -71.99360, 0, -112.280 ],
								[ -71.99230, 0, -112.280 ],
								[ -71.080, 0, -113.19230 ],
								[ -71.080, 0, -113.19230 ],
								[ -71.07990000000001, 0, -113.19230 ],
								[ -66.11490000000001, 0, -113.19230 ],
								[ -66.11530, 0, -113.19270 ],
								[ -66.11460000000001, 0, -113.19270 ],
								[ -66.11460000000001, 0, -114.27970 ],
								[ -54.23510, 0, -113.19230 ],
								[ -47.0240, 0, -113.19230 ],
								[ -44.19760, 0, -121.23640 ],
								[ -40.87350, 0, -121.23640 ],
								[ -40.87480, 0, -121.23460 ],
								[ -40.87480, 0, -116.57630 ],
								[ -45.50360, 0, -113.65440 ],
								[ -45.50360, 0, -113.19230 ],
								[ -40.8750, 0, -113.19230 ],
								[ -40.87480, 0, -113.19230 ],
								[ -40.87480, 0, -110.43370 ],
								[ -40.92860, 0, -110.43370 ],
								[ -40.92860, 0, -109.97160 ],
								[ -40.87480, 0, -109.94960 ],
								[ -40.87480, 0, -109.73880 ],
								[ -42.44880, 0, -110.43370 ],
								[ -45.46680, 0, -110.43370 ],
								[ -45.46680, 0, -109.97160 ],
								[ -40.87480, 0, -103.31980 ],
								[ -40.87480, 0, -103.08640 ],
								[ -40.87660, 0, -103.08910 ],
								[ -46.08000000000001, 0, -103.08910 ],
								[ -46.9870, 0, -110.43370 ],
								[ -56.91860, 0, -110.43370 ],
								[ -71.99240, 0, -107.13040 ],
								[ -71.99240, 0, -112.27950 ],
								[ -71.99360, 0, -112.280 ]
							]
						],
						"holes" : null
					},
					"triggerType" : "SpatialLocation",
					"triggerValue" : [ -47.24870, 0, -112.55280 ],
					"type" : "IsovistEvent",
					"visible_products" : 
					[
						"3XmS1mRT6z_Oj8qsuF_8Jz",
						"2GFAPGjp3RJz6cltRX4UD8",
						"0kK80n2ejhRjDhCyKCKHWF"
					]
				},
				
				{
					"event_index" : 8,
					"isovist_geometry" : 
					{
						"contours" : 
						[
							
							[
								[ -71.99360, 0, -112.280 ],
								[ -71.99230, 0, -112.280 ],
								[ -71.080, 0, -113.19230 ],
								[ -71.080, 0, -113.19230 ],
								[ -71.07990000000001, 0, -113.19230 ],
								[ -66.11490000000001, 0, -113.19230 ],
								[ -66.11530, 0, -113.19270 ],
								[ -66.11460000000001, 0, -113.19270 ],
								[ -66.11460000000001, 0, -114.80230 ],
								[ -54.23510, 0, -113.19230 ],
								[ -47.0240, 0, -113.19230 ],
								[ -40.87480, 0, -117.3280 ],
								[ -40.87480, 0, -115.81720 ],
								[ -45.50360, 0, -113.65440 ],
								[ -45.50360, 0, -113.19230 ],
								[ -40.8750, 0, -113.19230 ],
								[ -40.87480, 0, -113.19230 ],
								[ -40.87480, 0, -110.43370 ],
								[ -40.92860, 0, -110.43370 ],
								[ -40.92860, 0, -109.97160 ],
								[ -40.87480, 0, -109.95390 ],
								[ -40.87480, 0, -109.90440 ],
								[ -42.44880, 0, -110.43370 ],
								[ -45.46680, 0, -110.43370 ],
								[ -45.46680, 0, -109.97160 ],
								[ -40.87480, 0, -105.9760 ],
								[ -40.87480, 0, -103.08680 ],
								[ -40.87660, 0, -103.08910 ],
								[ -42.28090, 0, -103.08910 ],
								[ -46.9870, 0, -110.43370 ],
								[ -56.91860, 0, -110.43370 ],
								[ -71.99240, 0, -107.05770 ],
								[ -71.99240, 0, -112.27950 ],
								[ -71.99360, 0, -112.280 ]
							]
						],
						"holes" : null
					},
					"triggerType" : "SpatialLocation",
					"triggerValue" : [ -48.23340, 0, -112.37890 ],
					"type" : "IsovistEvent",
					"visible_products" : 
					[
						"3XmS1mRT6z_Oj8qsuF_8Jz",
						"2GFAPGjp3RJz6cltRX4UD8",
						"0kK80n2ejhRjDhCyKCKHWF"
					]
				},
				
				{
					"event_index" : 9,
					"isovist_geometry" : 
					{
						"contours" : 
						[
							
							[
								[ -71.99360, 0, -112.280 ],
								[ -71.99230, 0, -112.280 ],
								[ -71.080, 0, -113.19230 ],
								[ -71.080, 0, -113.19230 ],
								[ -71.07990000000001, 0, -113.19230 ],
								[ -66.11490000000001, 0, -113.19230 ],
								[ -66.11530, 0, -113.19270 ],
								[ -66.11460000000001, 0, -113.19270 ],
								[ -66.11460000000001, 0, -115.29470 ],
								[ -57.35240, 0, -113.69240 ],
								[ -56.89030, 0, -113.69240 ],
								[ -56.89030, 0, -113.71490 ],
								[ -54.23510, 0, -113.19230 ],
								[ -47.0240, 0, -113.19230 ],
								[ -40.87480, 0, -115.95950 ],
								[ -40.87480, 0, -115.46060 ],
								[ -45.50360, 0, -113.65440 ],
								[ -45.50360, 0, -113.19230 ],
								[ -40.8750, 0, -113.19230 ],
								[ -40.87480, 0, -113.19230 ],
								[ -40.87480, 0, -110.43370 ],
								[ -40.92860, 0, -110.43370 ],
								[ -40.92860, 0, -110.03590 ],
								[ -42.44880, 0, -110.43370 ],
								[ -45.46680, 0, -110.43370 ],
								[ -45.46680, 0, -109.97160 ],
								[ -40.87480, 0, -107.23790 ],
								[ -40.87480, 0, -105.58160 ],
								[ -46.9870, 0, -110.43370 ],
								[ -56.91860, 0, -110.43370 ],
								[ -71.99240, 0, -106.96650 ],
								[ -71.99240, 0, -112.27950 ],
								[ -71.99360, 0, -112.280 ]
							]
						],
						"holes" : null
					},
					"triggerType" : "SpatialLocation",
					"triggerValue" : [ -49.21820, 0, -112.20490 ],
					"type" : "IsovistEvent",
					"visible_products" : 
					[
						"3XmS1mRT6z_Oj8qsuF_8Jz",
						"2GFAPGjp3RJz6cltRX4UD8",
						"0kK80n2ejhRjDhCyKCKHWF"
					]
				},
				
				{
					"event_index" : 10,
					"isovist_geometry" : 
					{
						"contours" : 
						[
							
							[
								[ -71.99360, 0, -112.280 ],
								[ -71.99230, 0, -112.280 ],
								[ -71.080, 0, -113.19230 ],
								[ -71.080, 0, -113.19230 ],
								[ -71.07990000000001, 0, -113.19230 ],
								[ -66.11490000000001, 0, -113.19230 ],
								[ -66.11540000000001, 0, -113.19280 ],
								[ -66.11460000000001, 0, -113.19270 ],
								[ -66.11460000000001, 0, -115.72860 ],
								[ -57.35240, 0, -113.69240 ],
								[ -56.89030, 0, -113.69240 ],
								[ -56.89030, 0, -113.9570 ],
								[ -54.23510, 0, -113.19230 ],
								[ -47.0240, 0, -113.19230 ],
								[ -40.87480, 0, -115.43870 ],
								[ -40.87480, 0, -115.25340 ],
								[ -45.50360, 0, -113.65440 ],
								[ -45.50360, 0, -113.19230 ],
								[ -40.8750, 0, -113.19230 ],
								[ -40.87480, 0, -113.19230 ],
								[ -40.87480, 0, -110.43370 ],
								[ -40.92860, 0, -110.43370 ],
								[ -40.92860, 0, -110.12050 ],
								[ -42.44880, 0, -110.43370 ],
								[ -45.46680, 0, -110.43370 ],
								[ -45.46680, 0, -109.97160 ],
								[ -40.87480, 0, -107.97490 ],
								[ -40.87480, 0, -107.39780 ],
								[ -46.9870, 0, -110.43370 ],
								[ -56.91860, 0, -110.43370 ],
								[ -71.99240, 0, -106.84850 ],
								[ -71.99240, 0, -112.27950 ],
								[ -71.99360, 0, -112.280 ]
							]
						],
						"holes" : null
					},
					"triggerType" : "SpatialLocation",
					"triggerValue" : [ -50.20290, 0, -112.0310 ],
					"type" : "IsovistEvent",
					"visible_products" : 
					[
						"3XmS1mRT6z_Oj8qsuF_8Jz",
						"2GFAPGjp3RJz6cltRX4UD8",
						"0kK80n2ejhRjDhCyKCKHWF"
					]
				},
				
				{
					"event_index" : 11,
					"isovist_geometry" : 
					{
						"contours" : 
						[
							
							[
								[ -71.99370, 0, -112.280 ],
								[ -71.99230, 0, -112.280 ],
								[ -71.080, 0, -113.19230 ],
								[ -71.080, 0, -113.19230 ],
								[ -71.07990000000001, 0, -113.19230 ],
								[ -66.11490000000001, 0, -113.19230 ],
								[ -66.11540000000001, 0, -113.19280 ],
								[ -66.11460000000001, 0, -113.19270 ],
								[ -66.11460000000001, 0, -116.30110 ],
								[ -57.35240, 0, -113.69240 ],
								[ -56.89030, 0, -113.69240 ],
								[ -56.89030, 0, -114.35570 ],
								[ -54.23510, 0, -113.19230 ],
								[ -47.0240, 0, -113.19230 ],
								[ -40.87480, 0, -115.16440 ],
								[ -40.87480, 0, -115.11810 ],
								[ -45.50360, 0, -113.65440 ],
								[ -45.50360, 0, -113.19230 ],
								[ -40.8750, 0, -113.19230 ],
								[ -40.87480, 0, -113.19230 ],
								[ -40.87480, 0, -110.43370 ],
								[ -40.92860, 0, -110.43370 ],
								[ -40.92860, 0, -110.18610 ],
								[ -42.44880, 0, -110.43370 ],
								[ -45.46680, 0, -110.43370 ],
								[ -45.46680, 0, -109.97160 ],
								[ -40.87480, 0, -108.45820 ],
								[ -40.87480, 0, -108.36270 ],
								[ -46.9870, 0, -110.43370 ],
								[ -56.91860, 0, -110.43370 ],
								[ -71.99240, 0, -106.690 ],
								[ -71.99240, 0, -112.27950 ],
								[ -71.99370, 0, -112.280 ]
							]
						],
						"holes" : null
					},
					"triggerType" : "SpatialLocation",
					"triggerValue" : [ -51.18770, 0, -111.8570 ],
					"type" : "IsovistEvent",
					"visible_products" : 
					[
						"3XmS1mRT6z_Oj8qsuF_8Jz",
						"2GFAPGjp3RJz6cltRX4UD8",
						"0kK80n2ejhRjDhCyKCKHWF"
					]
				},
				
				{
					"event_index" : 12,
					"isovist_geometry" : 
					{
						"contours" : 
						[
							
							[
								[ -71.99370, 0, -112.280 ],
								[ -71.99230, 0, -112.280 ],
								[ -71.080, 0, -113.19230 ],
								[ -71.080, 0, -113.19230 ],
								[ -71.07990000000001, 0, -113.19230 ],
								[ -66.11490000000001, 0, -113.19230 ],
								[ -66.11540000000001, 0, -113.19280 ],
								[ -66.11460000000001, 0, -113.19270 ],
								[ -66.11460000000001, 0, -117.09140 ],
								[ -57.35240, 0, -113.69240 ],
								[ -56.89030, 0, -113.69240 ],
								[ -56.89030, 0, -115.13510 ],
								[ -54.23510, 0, -113.19230 ],
								[ -47.0240, 0, -113.19230 ],
								[ -45.50360, 0, -113.6380 ],
								[ -45.50360, 0, -113.19230 ],
								[ -40.8750, 0, -113.19230 ],
								[ -40.87480, 0, -113.19230 ],
								[ -40.87480, 0, -110.43370 ],
								[ -40.92860, 0, -110.43370 ],
								[ -40.92860, 0, -110.23840 ],
								[ -42.44880, 0, -110.43370 ],
								[ -45.46680, 0, -110.43370 ],
								[ -45.46680, 0, -110.06740 ],
								[ -46.9870, 0, -110.43370 ],
								[ -56.91860, 0, -110.43370 ],
								[ -71.99240, 0, -106.4660 ],
								[ -71.99240, 0, -112.27950 ],
								[ -71.99370, 0, -112.280 ]
							]
						],
						"holes" : null
					},
					"triggerType" : "SpatialLocation",
					"triggerValue" : [ -52.17240, 0, -111.6830 ],
					"type" : "IsovistEvent",
					"visible_products" : 
					[
						"3XmS1mRT6z_Oj8qsuF_8Jz",
						"2GFAPGjp3RJz6cltRX4UD8",
						"0kK80n2ejhRjDhCyKCKHWF",
						"1mykaUuyvkTljgtC55HWuY"
					]
				},
				
				{
					"event_index" : 13,
					"isovist_geometry" : 
					{
						"contours" : 
						[
							
							[
								[ -71.99380000000001, 0, -112.28010 ],
								[ -71.99230, 0, -112.280 ],
								[ -71.080, 0, -113.19230 ],
								[ -71.080, 0, -113.19230 ],
								[ -71.07990000000001, 0, -113.19230 ],
								[ -66.11490000000001, 0, -113.19230 ],
								[ -66.11540000000001, 0, -113.19280 ],
								[ -66.11460000000001, 0, -113.19270 ],
								[ -66.11460000000001, 0, -117.76030 ],
								[ -64.66460000000001, 0, -117.06080 ],
								[ -63.82480, 0, -117.06080 ],
								[ -57.35240, 0, -113.69240 ],
								[ -56.89030, 0, -113.69240 ],
								[ -56.89030, 0, -117.33850 ],
								[ -54.23510, 0, -113.19230 ],
								[ -47.0240, 0, -113.19230 ],
								[ -45.50360, 0, -113.60960 ],
								[ -45.50360, 0, -113.19230 ],
								[ -40.8750, 0, -113.19230 ],
								[ -40.87480, 0, -113.19230 ],
								[ -40.87480, 0, -110.43370 ],
								[ -40.92860, 0, -110.43370 ],
								[ -40.92860, 0, -110.2810 ],
								[ -42.44880, 0, -110.43370 ],
								[ -45.46680, 0, -110.43370 ],
								[ -45.46680, 0, -110.16870 ],
								[ -46.9870, 0, -110.43370 ],
								[ -56.91860, 0, -110.43370 ],
								[ -71.99240, 0, -106.1240 ],
								[ -71.99240, 0, -112.27950 ],
								[ -71.99380000000001, 0, -112.28010 ]
							]
						],
						"holes" : null
					},
					"triggerType" : "SpatialLocation",
					"triggerValue" : [ -53.15720, 0, -111.50910 ],
					"type" : "IsovistEvent",
					"visible_products" : 
					[
						"3XmS1mRT6z_Oj8qsuF_8Jz",
						"2GFAPGjp3RJz6cltRX4UD8",
						"0kK80n2ejhRjDhCyKCKHWF",
						"1mykaUuyvkTljgtC55HWuY"
					]
				},
				
				{
					"event_index" : 14,
					"isovist_geometry" : 
					{
						"contours" : 
						[
							
							[
								[ -71.99380000000001, 0, -112.28010 ],
								[ -71.99230, 0, -112.280 ],
								[ -71.080, 0, -113.19230 ],
								[ -71.080, 0, -113.19230 ],
								[ -71.07990000000001, 0, -113.19230 ],
								[ -66.11490000000001, 0, -113.19230 ],
								[ -66.11540000000001, 0, -113.19280 ],
								[ -66.11460000000001, 0, -113.19270 ],
								[ -66.11460000000001, 0, -117.84980 ],
								[ -64.66460000000001, 0, -117.06080 ],
								[ -61.940, 0, -117.06080 ],
								[ -57.35240, 0, -113.69240 ],
								[ -56.89030, 0, -113.69240 ],
								[ -56.89030, 0, -121.23610 ],
								[ -56.89040, 0, -121.23640 ],
								[ -54.63880, 0, -121.23640 ],
								[ -54.23510, 0, -113.19230 ],
								[ -47.0240, 0, -113.19230 ],
								[ -45.50360, 0, -113.5890 ],
								[ -45.50360, 0, -113.19230 ],
								[ -40.8750, 0, -113.19230 ],
								[ -40.87480, 0, -113.19230 ],
								[ -40.87480, 0, -110.43370 ],
								[ -40.92860, 0, -110.43370 ],
								[ -40.92860, 0, -110.31650 ],
								[ -42.44880, 0, -110.43370 ],
								[ -45.46680, 0, -110.43370 ],
								[ -45.46680, 0, -110.24220 ],
								[ -46.9870, 0, -110.43370 ],
								[ -56.91860, 0, -110.43370 ],
								[ -71.99240, 0, -105.54030 ],
								[ -71.99240, 0, -112.27950 ],
								[ -71.99380000000001, 0, -112.28010 ]
							]
						],
						"holes" : null
					},
					"triggerType" : "SpatialLocation",
					"triggerValue" : [ -54.14190, 0, -111.33510 ],
					"type" : "IsovistEvent",
					"visible_products" : 
					[
						"3XmS1mRT6z_Oj8qsuF_8Jz",
						"2GFAPGjp3RJz6cltRX4UD8",
						"0kK80n2ejhRjDhCyKCKHWF",
						"1mykaUuyvkTljgtC55HWuY"
					]
				},
				
				{
					"event_index" : 15,
					"isovist_geometry" : 
					{
						"contours" : 
						[
							
							[
								[ -71.99390, 0, -112.28010 ],
								[ -71.99230, 0, -112.280 ],
								[ -71.080, 0, -113.19230 ],
								[ -71.080, 0, -113.19230 ],
								[ -71.07990000000001, 0, -113.19230 ],
								[ -66.11490000000001, 0, -113.19230 ],
								[ -66.11550, 0, -113.19290 ],
								[ -66.11460000000001, 0, -113.19270 ],
								[ -66.11460000000001, 0, -117.95770 ],
								[ -64.66460000000001, 0, -117.06080 ],
								[ -60.31410, 0, -117.06080 ],
								[ -57.35240, 0, -113.69240 ],
								[ -56.89030, 0, -113.69240 ],
								[ -56.89030, 0, -121.23610 ],
								[ -56.89040, 0, -121.23640 ],
								[ -54.23510, 0, -121.23640 ],
								[ -54.23510, 0, -121.23610 ],
								[ -54.23510, 0, -113.19270 ],
								[ -54.23480, 0, -113.1930 ],
								[ -54.23510, 0, -113.19230 ],
								[ -47.0240, 0, -113.19230 ],
								[ -45.50360, 0, -113.57340 ],
								[ -45.50360, 0, -113.19230 ],
								[ -40.8750, 0, -113.19230 ],
								[ -40.87480, 0, -113.19230 ],
								[ -40.87480, 0, -110.43370 ],
								[ -40.92860, 0, -110.43370 ],
								[ -40.92860, 0, -110.34650 ],
								[ -42.44880, 0, -110.43370 ],
								[ -45.46680, 0, -110.43370 ],
								[ -45.46680, 0, -110.29780 ],
								[ -46.9870, 0, -110.43370 ],
								[ -56.91860, 0, -110.43370 ],
								[ -71.99240, 0, -104.31470 ],
								[ -71.99240, 0, -112.27950 ],
								[ -71.99390, 0, -112.28010 ]
							]
						],
						"holes" : null
					},
					"triggerType" : "SpatialLocation",
					"triggerValue" : [ -55.12670, 0, -111.16110 ],
					"type" : "IsovistEvent",
					"visible_products" : 
					[
						"3XmS1mRT6z_Oj8qsuF_8Jz",
						"2GFAPGjp3RJz6cltRX4UD8",
						"0kK80n2ejhRjDhCyKCKHWF",
						"1mykaUuyvkTljgtC55HWuY"
					]
				},
				
				{
					"event_index" : 16,
					"isovist_geometry" : 
					{
						"contours" : 
						[
							
							[
								[ -71.99390, 0, -112.28010 ],
								[ -71.99230, 0, -112.280 ],
								[ -71.080, 0, -113.19230 ],
								[ -71.080, 0, -113.19230 ],
								[ -71.07990000000001, 0, -113.19230 ],
								[ -66.11490000000001, 0, -113.19230 ],
								[ -66.11550, 0, -113.19290 ],
								[ -66.11460000000001, 0, -113.19270 ],
								[ -66.11460000000001, 0, -118.09040 ],
								[ -64.66460000000001, 0, -117.06080 ],
								[ -59.01230, 0, -117.06080 ],
								[ -59.01230, 0, -117.31070 ],
								[ -57.35240, 0, -113.69240 ],
								[ -56.89030, 0, -113.69240 ],
								[ -56.89030, 0, -121.23610 ],
								[ -56.89030, 0, -121.23640 ],
								[ -54.2350, 0, -121.23640 ],
								[ -54.23510, 0, -121.23610 ],
								[ -54.23510, 0, -113.19270 ],
								[ -54.23280, 0, -113.1950 ],
								[ -54.23510, 0, -113.19230 ],
								[ -47.0240, 0, -113.19230 ],
								[ -45.50360, 0, -113.56120 ],
								[ -45.50360, 0, -113.19230 ],
								[ -40.8750, 0, -113.19230 ],
								[ -40.87480, 0, -113.19230 ],
								[ -40.87480, 0, -110.43370 ],
								[ -40.92860, 0, -110.43370 ],
								[ -40.92860, 0, -110.37210 ],
								[ -42.44880, 0, -110.43370 ],
								[ -45.46680, 0, -110.43370 ],
								[ -45.46680, 0, -110.34150 ],
								[ -46.9870, 0, -110.43370 ],
								[ -56.91860, 0, -110.43370 ],
								[ -67.62960, 0, -103.08910 ],
								[ -71.99340000000001, 0, -103.08910 ],
								[ -71.99240, 0, -103.08960 ],
								[ -71.99240, 0, -112.27950 ],
								[ -71.99390, 0, -112.28010 ]
							]
						],
						"holes" : null
					},
					"triggerType" : "SpatialLocation",
					"triggerValue" : [ -56.11140, 0, -110.98720 ],
					"type" : "IsovistEvent",
					"visible_products" : 
					[
						"3XmS1mRT6z_Oj8qsuF_8Jz",
						"2GFAPGjp3RJz6cltRX4UD8",
						"0kK80n2ejhRjDhCyKCKHWF",
						"1mykaUuyvkTljgtC55HWuY",
						"3Ia9nDDtOmnPf74O9cwan0"
					]
				},
				
				{
					"event_index" : 17,
					"isovist_geometry" : 
					{
						"contours" : 
						[
							
							[
								[ -71.9940, 0, -112.28020 ],
								[ -71.99230, 0, -112.280 ],
								[ -71.080, 0, -113.19230 ],
								[ -71.080, 0, -113.19230 ],
								[ -71.07990000000001, 0, -113.19230 ],
								[ -66.11490000000001, 0, -113.19230 ],
								[ -66.11550, 0, -113.19290 ],
								[ -66.11460000000001, 0, -113.19270 ],
								[ -66.11460000000001, 0, -118.2550 ],
								[ -64.66460000000001, 0, -117.06080 ],
								[ -59.01230, 0, -117.06080 ],
								[ -59.01230, 0, -117.52290 ],
								[ -60.0810, 0, -121.23640 ],
								[ -58.06120, 0, -121.23640 ],
								[ -57.35240, 0, -113.69240 ],
								[ -56.89030, 0, -113.69240 ],
								[ -56.38730, 0, -121.23640 ],
								[ -54.2350, 0, -121.23640 ],
								[ -54.23510, 0, -121.23610 ],
								[ -54.23510, 0, -113.19270 ],
								[ -54.23270, 0, -113.19470 ],
								[ -54.23510, 0, -113.19230 ],
								[ -47.0240, 0, -113.19230 ],
								[ -45.50360, 0, -113.55160 ],
								[ -45.50360, 0, -113.19230 ],
								[ -40.8750, 0, -113.19230 ],
								[ -40.87480, 0, -113.19230 ],
								[ -40.87480, 0, -110.43370 ],
								[ -40.92860, 0, -110.43370 ],
								[ -40.92860, 0, -110.3940 ],
								[ -42.44880, 0, -110.43370 ],
								[ -45.46680, 0, -110.43370 ],
								[ -45.46680, 0, -110.37620 ],
								[ -46.9870, 0, -110.43370 ],
								[ -56.91860, 0, -110.43370 ],
								[ -56.91840000000001, 0, -110.43320 ],
								[ -56.91850, 0, -110.43330 ],
								[ -56.91850, 0, -103.08950 ],
								[ -56.91850, 0, -103.08910 ],
								[ -58.2160, 0, -103.08910 ],
								[ -59.20620, 0, -96.34150000000001 ],
								[ -61.77500000000001, 0, -96.34150000000001 ],
								[ -59.73710000000001, 0, -102.6270 ],
								[ -59.73710000000001, 0, -103.08910 ],
								[ -71.99340000000001, 0, -103.08910 ],
								[ -71.99240, 0, -103.08960 ],
								[ -71.99240, 0, -112.27950 ],
								[ -71.9940, 0, -112.28020 ]
							]
						],
						"holes" : null
					},
					"triggerType" : "SpatialLocation",
					"triggerValue" : [ -57.08210, 0, -110.81570 ],
					"type" : "IsovistEvent",
					"visible_products" : 
					[
						"3pXs2F$8uuDaHh3_QfUnuP",
						"3XmS1mRT6z_Oj8qsuF_8Jz",
						"2GFAPGjp3RJz6cltRX4UD8",
						"0kK80n2ejhRjDhCyKCKHWF",
						"1mykaUuyvkTljgtC55HWuY",
						"3Ia9nDDtOmnPf74O9cwan0"
					]
				},
				
				{
					"event_index" : 18,
					"isovist_geometry" : 
					{
						"contours" : 
						[
							
							[
								[ -71.99410, 0, -112.28020 ],
								[ -71.99230, 0, -112.280 ],
								[ -71.080, 0, -113.19230 ],
								[ -71.080, 0, -113.19230 ],
								[ -71.07990000000001, 0, -113.19230 ],
								[ -66.11490000000001, 0, -113.19230 ],
								[ -66.11560, 0, -113.1930 ],
								[ -66.11460000000001, 0, -113.19270 ],
								[ -66.11460000000001, 0, -118.33410 ],
								[ -64.66460000000001, 0, -117.06080 ],
								[ -59.01230, 0, -117.06080 ],
								[ -59.01230, 0, -117.52290 ],
								[ -59.89510, 0, -121.23640 ],
								[ -57.56390, 0, -121.23640 ],
								[ -57.49210, 0, -117.06080 ],
								[ -57.35240, 0, -117.06080 ],
								[ -57.35240, 0, -113.69240 ],
								[ -56.89030, 0, -113.69240 ],
								[ -55.66450, 0, -121.23640 ],
								[ -54.2350, 0, -121.23640 ],
								[ -54.23510, 0, -121.23610 ],
								[ -54.23510, 0, -113.19270 ],
								[ -54.23310, 0, -113.19430 ],
								[ -54.23510, 0, -113.19230 ],
								[ -47.0240, 0, -113.19230 ],
								[ -45.50360, 0, -113.56320 ],
								[ -45.50360, 0, -113.19230 ],
								[ -40.8750, 0, -113.19230 ],
								[ -40.87480, 0, -113.19230 ],
								[ -40.87480, 0, -110.43370 ],
								[ -40.92860, 0, -110.43370 ],
								[ -40.92860, 0, -110.41010 ],
								[ -42.44880, 0, -110.43370 ],
								[ -45.46680, 0, -110.43370 ],
								[ -45.46680, 0, -110.39980 ],
								[ -46.9870, 0, -110.43370 ],
								[ -56.91860, 0, -110.43370 ],
								[ -56.91790, 0, -110.4330 ],
								[ -56.91850, 0, -110.43330 ],
								[ -56.91850, 0, -103.08950 ],
								[ -56.91850, 0, -103.08910 ],
								[ -58.2160, 0, -103.08910 ],
								[ -58.95870, 0, -96.34150000000001 ],
								[ -61.57850000000001, 0, -96.34150000000001 ],
								[ -59.73710000000001, 0, -102.6270 ],
								[ -59.73710000000001, 0, -103.08910 ],
								[ -71.99340000000001, 0, -103.08910 ],
								[ -71.99240, 0, -103.08960 ],
								[ -71.99240, 0, -112.27950 ],
								[ -71.99410, 0, -112.28020 ]
							]
						],
						"holes" : null
					},
					"triggerType" : "SpatialLocation",
					"triggerValue" : [ -57.38210, 0, -110.66570 ],
					"type" : "IsovistEvent",
					"visible_products" : 
					[
						"3pXs2F$8uuDaHh3_QfUnuP",
						"3XmS1mRT6z_Oj8qsuF_8Jz",
						"2GFAPGjp3RJz6cltRX4UD8",
						"0kK80n2ejhRjDhCyKCKHWF",
						"1mykaUuyvkTljgtC55HWuY",
						"3Ia9nDDtOmnPf74O9cwan0"
					]
				},
				
				{
					"event_index" : 19,
					"isovist_geometry" : 
					{
						"contours" : 
						[
							
							[
								[ -71.99420000000001, 0, -112.28020 ],
								[ -71.99230, 0, -112.280 ],
								[ -71.080, 0, -113.19230 ],
								[ -71.080, 0, -113.19230 ],
								[ -71.07990000000001, 0, -113.19230 ],
								[ -66.11490000000001, 0, -113.19230 ],
								[ -66.11570, 0, -113.19310 ],
								[ -66.11460000000001, 0, -113.19270 ],
								[ -66.11460000000001, 0, -118.54880 ],
								[ -64.66460000000001, 0, -117.06080 ],
								[ -59.01230, 0, -117.06080 ],
								[ -59.01230, 0, -117.52290 ],
								[ -59.35170, 0, -121.23640 ],
								[ -57.35240, 0, -121.23640 ],
								[ -57.35240, 0, -121.23610 ],
								[ -57.35240, 0, -118.60940 ],
								[ -57.49210, 0, -117.52290 ],
								[ -57.49210, 0, -117.06080 ],
								[ -57.35240, 0, -117.06080 ],
								[ -57.35240, 0, -113.69240 ],
								[ -56.89030, 0, -113.69240 ],
								[ -54.23510, 0, -119.17990 ],
								[ -54.23510, 0, -113.19270 ],
								[ -54.2340, 0, -113.19340 ],
								[ -54.23510, 0, -113.19230 ],
								[ -47.0240, 0, -113.19230 ],
								[ -45.50360, 0, -113.53770 ],
								[ -45.50360, 0, -113.19230 ],
								[ -40.8750, 0, -113.19230 ],
								[ -40.87480, 0, -113.19230 ],
								[ -40.87480, 0, -110.43370 ],
								[ -40.92860, 0, -110.43370 ],
								[ -40.92860, 0, -110.41670 ],
								[ -42.44880, 0, -110.43370 ],
								[ -45.46680, 0, -110.43370 ],
								[ -45.46680, 0, -110.40990 ],
								[ -46.9870, 0, -110.43370 ],
								[ -56.91860, 0, -110.43370 ],
								[ -56.91820000000001, 0, -110.43330 ],
								[ -56.91850, 0, -110.43330 ],
								[ -56.91850, 0, -103.08950 ],
								[ -56.91840000000001, 0, -103.08910 ],
								[ -58.2160, 0, -103.08910 ],
								[ -58.2160, 0, -102.6270 ],
								[ -58.08640, 0, -96.34150000000001 ],
								[ -60.80480, 0, -96.34150000000001 ],
								[ -59.73710000000001, 0, -102.6270 ],
								[ -59.73710000000001, 0, -103.08910 ],
								[ -71.99330, 0, -103.08910 ],
								[ -71.99240, 0, -103.08960 ],
								[ -71.99240, 0, -112.27950 ],
								[ -71.99420000000001, 0, -112.28020 ]
							]
						],
						"holes" : null
					},
					"triggerType" : "SpatialLocation",
					"triggerValue" : [ -58.38070, 0, -110.61220 ],
					"type" : "IsovistEvent",
					"visible_products" : 
					[
						"3pXs2F$8uuDaHh3_QfUnuP",
						"3XmS1mRT6z_Oj8qsuF_8Jz",
						"2GFAPGjp3RJz6cltRX4UD8",
						"0kK80n2ejhRjDhCyKCKHWF",
						"1mykaUuyvkTljgtC55HWuY",
						"3Ia9nDDtOmnPf74O9cwan0"
					]
				},
				
				{
					"event_index" : 20,
					"isovist_geometry" : 
					{
						"contours" : 
						[
							
							[
								[ -71.99420000000001, 0, -112.28030 ],
								[ -71.99230, 0, -112.280 ],
								[ -71.080, 0, -113.19230 ],
								[ -71.080, 0, -113.19230 ],
								[ -71.07990000000001, 0, -113.19230 ],
								[ -66.11490000000001, 0, -113.19230 ],
								[ -66.11570, 0, -113.19310 ],
								[ -66.11460000000001, 0, -113.19270 ],
								[ -66.11460000000001, 0, -118.84460 ],
								[ -64.66460000000001, 0, -117.06080 ],
								[ -59.01230, 0, -117.06080 ],
								[ -58.77670000000001, 0, -121.23640 ],
								[ -57.35230, 0, -121.23640 ],
								[ -57.35240, 0, -121.23610 ],
								[ -57.35240, 0, -118.03850 ],
								[ -57.49210, 0, -117.52290 ],
								[ -57.49210, 0, -117.06080 ],
								[ -57.35240, 0, -117.06080 ],
								[ -57.35240, 0, -113.69240 ],
								[ -56.89030, 0, -113.69240 ],
								[ -54.23510, 0, -117.03550 ],
								[ -54.23510, 0, -113.19270 ],
								[ -54.23430, 0, -113.19310 ],
								[ -54.23510, 0, -113.19230 ],
								[ -47.0240, 0, -113.19230 ],
								[ -45.50360, 0, -113.51640 ],
								[ -45.50360, 0, -113.19230 ],
								[ -40.8750, 0, -113.19230 ],
								[ -40.87480, 0, -113.19230 ],
								[ -40.87480, 0, -110.43370 ],
								[ -40.92860, 0, -110.43370 ],
								[ -40.92860, 0, -110.42250 ],
								[ -42.44880, 0, -110.43370 ],
								[ -45.46680, 0, -110.43370 ],
								[ -45.46680, 0, -110.41840 ],
								[ -46.9870, 0, -110.43370 ],
								[ -56.91860, 0, -110.43370 ],
								[ -56.91820000000001, 0, -110.43330 ],
								[ -56.91850, 0, -110.43330 ],
								[ -56.91850, 0, -103.08950 ],
								[ -56.91840000000001, 0, -103.08910 ],
								[ -58.2160, 0, -103.08910 ],
								[ -58.2160, 0, -102.6270 ],
								[ -57.29420, 0, -96.34150000000001 ],
								[ -60.02070000000001, 0, -96.34150000000001 ],
								[ -59.73710000000001, 0, -102.6270 ],
								[ -59.73710000000001, 0, -103.08910 ],
								[ -71.99320, 0, -103.08910 ],
								[ -71.99240, 0, -103.08960 ],
								[ -71.99240, 0, -112.27950 ],
								[ -71.99420000000001, 0, -112.28030 ]
							]
						],
						"holes" : null
					},
					"triggerType" : "SpatialLocation",
					"triggerValue" : [ -59.37920, 0, -110.55870 ],
					"type" : "IsovistEvent",
					"visible_products" : 
					[
						"3pXs2F$8uuDaHh3_QfUnuP",
						"3XmS1mRT6z_Oj8qsuF_8Jz",
						"2GFAPGjp3RJz6cltRX4UD8",
						"0kK80n2ejhRjDhCyKCKHWF",
						"1mykaUuyvkTljgtC55HWuY",
						"3Ia9nDDtOmnPf74O9cwan0"
					]
				},
				
				{
					"event_index" : 21,
					"isovist_geometry" : 
					{
						"contours" : 
						[
							
							[
								[ -71.99440, 0, -112.28030 ],
								[ -71.99230, 0, -112.280 ],
								[ -71.080, 0, -113.19230 ],
								[ -71.080, 0, -113.19230 ],
								[ -71.07990000000001, 0, -113.19230 ],
								[ -66.11490000000001, 0, -113.19230 ],
								[ -66.11590, 0, -113.19330 ],
								[ -66.11460000000001, 0, -113.19270 ],
								[ -66.11460000000001, 0, -119.27830 ],
								[ -64.66460000000001, 0, -117.06080 ],
								[ -59.01230, 0, -117.06080 ],
								[ -58.14260, 0, -121.23640 ],
								[ -57.35230, 0, -121.23640 ],
								[ -57.35240, 0, -121.23610 ],
								[ -57.35240, 0, -117.86260 ],
								[ -57.49210, 0, -117.52290 ],
								[ -57.49210, 0, -117.06080 ],
								[ -57.35240, 0, -117.06080 ],
								[ -57.35240, 0, -113.69240 ],
								[ -56.89030, 0, -113.69240 ],
								[ -54.23510, 0, -116.1190 ],
								[ -54.23510, 0, -113.19270 ],
								[ -54.23440, 0, -113.1930 ],
								[ -54.23510, 0, -113.19230 ],
								[ -47.0240, 0, -113.19230 ],
								[ -45.50360, 0, -113.49830 ],
								[ -45.50360, 0, -113.19230 ],
								[ -40.8750, 0, -113.19230 ],
								[ -40.87480, 0, -113.19230 ],
								[ -40.87480, 0, -110.43370 ],
								[ -40.92860, 0, -110.43370 ],
								[ -40.92860, 0, -110.42760 ],
								[ -42.44880, 0, -110.43370 ],
								[ -45.46680, 0, -110.43370 ],
								[ -45.46680, 0, -110.42560 ],
								[ -46.9870, 0, -110.43370 ],
								[ -56.91860, 0, -110.43370 ],
								[ -56.91820000000001, 0, -110.43330 ],
								[ -56.91850, 0, -110.43330 ],
								[ -56.91850, 0, -103.08950 ],
								[ -56.91830, 0, -103.08910 ],
								[ -58.2160, 0, -103.08910 ],
								[ -58.2160, 0, -102.6270 ],
								[ -56.49120, 0, -96.34150000000001 ],
								[ -59.15410, 0, -96.34150000000001 ],
								[ -59.73710000000001, 0, -103.08910 ],
								[ -71.99320, 0, -103.08910 ],
								[ -71.99240, 0, -103.08960 ],
								[ -71.99240, 0, -112.27950 ],
								[ -71.99440, 0, -112.28030 ]
							]
						],
						"holes" : null
					},
					"triggerType" : "SpatialLocation",
					"triggerValue" : [ -60.37780, 0, -110.50510 ],
					"type" : "IsovistEvent",
					"visible_products" : 
					[
						"3pXs2F$8uuDaHh3_QfUnuP",
						"3XmS1mRT6z_Oj8qsuF_8Jz",
						"2GFAPGjp3RJz6cltRX4UD8",
						"0kK80n2ejhRjDhCyKCKHWF",
						"1mykaUuyvkTljgtC55HWuY",
						"3Ia9nDDtOmnPf74O9cwan0"
					]
				}
			],
			"narrative" : 
			[
				
				{
					"text" : "Going through the room the visitor can see some doorways in front. The room has a linear flow. The room is open and continuous.",
					"triggerType" : "SpatialLocation",
					"triggerValue" : [ -47.32390, 0, -117.44540 ],
					"type" : "Narrative"
				},
				
				{
					"text" : "Passing through the room the visitor can see some doorways all around. The room has a linear flow. The room seems spacious and continuous.",
					"triggerType" : "SpatialLocation",
					"triggerValue" : [ -46.26390, 0, -112.72680 ],
					"type" : "Narrative"
				}
			]
		},
		"geometric_path" : 
		[
			[ -47.32390, 0, -117.44540 ],
			[ -46.26390, 0, -114.120 ],
			[ -46.26390, 0, -112.72680 ],
			[ -57.08210, 0, -110.81570 ],
			[ -57.38210, 0, -110.66570 ],
			[ -60.58000000000001, 0, -110.49430 ]
		],
		"guid" : "WRG6hq=3o6wG`B?fZQ?^",
		"name" : "Path 1",
		"topological_product_path" : 
		[
			"wKQfTs^^wSgfELcxc46I",
			"0kK80n2ejhRjDhCyKCKHWF",
			"cT/iv6:m#*qEI-;TdH;J"
		]
	}
]

